Chapter 2 Data sources | NYC High school demographics analysis
…
##  [1] "CensusTract"     "County"          "Borough"         "TotalPop"       
##  [5] "Men"             "Women"           "Hispanic"        "White"          
##  [9] "Black"           "Native"          "Asian"           "Citizen"        
## [13] "Income"          "IncomeErr"       "IncomePerCap"    "IncomePerCapErr"
## [17] "Poverty"         "ChildPoverty"    "Professional"    "Service"        
## [21] "Office"          "Construction"    "Production"      "Drive"          
## [25] "Carpool"         "Transit"         "Walk"            "OtherTransp"    
## [29] "WorkAtHome"      "MeanCommute"     "Employed"        "PrivateWork"    
## [33] "PublicWork"      "SelfEmployed"    "FamilyWork"      "Unemployment"

Some common and important columns are NTA codes, tracts ids, Race & Ethnicities, Income and Child Poverty. NTA codes are GIS information for geographic marks and locations in NYC. Every single NTA code will match a place mark.

For some information like Census codes, the R uses incorrect scientific notation, so we got rid of it.

## # A tibble: 2,167 x 5
##    CensusTract County Borough TotalPop   Men
##          <dbl> <chr>  <chr>      <dbl> <dbl>
##  1 36005000100 Bronx  Bronx       7703  7133
##  2 36005000200 Bronx  Bronx       5403  2659
##  3 36005000400 Bronx  Bronx       5915  2896
##  4 36005001600 Bronx  Bronx       5879  2558
##  5 36005001900 Bronx  Bronx       2591  1206
##  6 36005002000 Bronx  Bronx       8516  3301
##  7 36005002300 Bronx  Bronx       4774  2130
##  8 36005002400 Bronx  Bronx        150   109
##  9 36005002500 Bronx  Bronx       5355  2338
## 10 36005002701 Bronx  Bronx       3016  1375
## # … with 2,157 more rows
…
