Chapter 4 Missing values | NYC High school demographics and performances
…
## #   admissionspriority47 <lgl>, admissionspriority57 <lgl>,
## #   admissionspriority67 <lgl>, admissionspriority77 <lgl>,
## #   admissionspriority18 <chr>, admissionspriority28 <chr>,
## #   admissionspriority38 <chr>, admissionspriority48 <lgl>,
## #   admissionspriority58 <lgl>, admissionspriority68 <lgl>,
## #   admissionspriority78 <lgl>, admissionspriority19 <chr>,
## #   admissionspriority29 <chr>, admissionspriority39 <lgl>,
## #   admissionspriority49 <lgl>, admissionspriority59 <lgl>,
## #   admissionspriority69 <lgl>, admissionspriority79 <lgl>,
## #   admissionspriority110 <chr>, admissionspriority210 <lgl>,
## #   admissionspriority310 <lgl>, admissionspriority410 <lgl>,
## #   admissionspriority510 <lgl>, admissionspriority610 <lgl>,
## #   admissionspriority710 <lgl>

## # A tibble: 427 x 120
##    requirement1_1 requirement1_2 requirement1_3 requirement1_4 requirement1_5
##    <chr>          <chr>          <chr>          <chr>          <chr>         
##  1 Attendance     <NA>           <NA>           <NA>           <NA>          
##  2 <NA>           <NA>           <NA>           <NA>           <NA>          
##  3 Attendance     <NA>           <NA>           <NA>           <NA>          
##  4 Attendance     <NA>           <NA>           <NA>           <NA>          
##  5 <NA>           <NA>           <NA>           <NA>           <NA>          
##  6 Attendance     <NA>           <NA>           <NA>           <NA>          
##  7 Individual In… Individual In… Individual In… Individual In… Individual In…
##  8 <NA>           <NA>           <NA>           <NA>           <NA>          
##  9 <NA>           <NA>           <NA>           <NA>           <NA>          
## 10 Course Grades… <NA>           <NA>           <NA>           <NA>          
## # … with 417 more rows, and 115 more variables: requirement1_6 <chr>,
## #   requirement1_7 <chr>, requirement1_8 <chr>, requirement1_9 <chr>,
## #   requirement1_10 <chr>, requirement2_1 <chr>, requirement2_2 <chr>,
## #   requirement2_3 <chr>, requirement2_4 <chr>, requirement2_5 <chr>,
## #   requirement2_6 <chr>, requirement2_7 <chr>, requirement2_8 <chr>,
## #   requirement2_9 <chr>, requirement2_10 <chr>, requirement3_1 <chr>,
## #   requirement3_2 <chr>, requirement3_3 <chr>, requirement3_4 <chr>,
## #   requirement3_5 <chr>, requirement3_6 <chr>, requirement3_7 <chr>,
## #   requirement3_8 <chr>, requirement3_9 <chr>, requirement3_10 <chr>,
…
